Russian comparative function words
…
###Linear Regression

years_distr <- t(table(data$Center, data$Created))
years_distr <- add_rownames(as.data.frame.matrix(years_distr)) 

## Warning: Deprecated, use tibble::rownames_to_column() instead.

colnames(years_distr) <-c("year", "ala", "aki", "budto", "kak", "podobno", "slovno")
years_distr$year <- as.numeric(years_distr$year)

years_distr

## # A tibble: 101 x 7
##     year   ala   aki budto   kak podobno slovno
##    <dbl> <int> <int> <int> <int>   <int>  <int>
##  1  1700     0    10     0     0       0      0
##  2  1710     0     5     0     9       0      0
##  3  1715     0     0     0     1       0      0
##  4  1720     0     7     0    17       1      0
##  5  1740     0     0     0     2       0      0
##  6  1750     0     5     1     1       4      0
##  7  1760     0    12     0     4       3      0
##  8  1770     0     4     2     3       0      0
##  9  1780     0     2     1    12       1      0
## 10  1785     0     0     1     0       1      0
## # ... with 91 more rows
…
